{
  "/weather-api/**": {
    "target": "http://localhost:9000",
    "secure": false,
    "changeOrigin": true,
    "logLevel": "debug"
  },
  "/weather-map/**": {
    "target": "http://localhost:9000",
    "secure": false,
    "changeOrigin": true,
    "logLevel": "debug"
  }
}
